{
  "store.custom#pagina-contato": {
    "blocks": [
      "flex-layout.row#page-contato"
    ]
  },
  "flex-layout.row#page-contato": {
    "children": [
      "flex-layout.col#page-contato-info",
      "flex-layout.col#page-contato-form"
    ],
    "props": {
      "blockClass": "page-contato"
    }
  },

  "flex-layout.col#page-contato-info": {
    "children": [
      "rich-text#page-contato-title",
      "rich-text#page-contato-text",
      "rich-text#page-contato-text-infos",
      "menu-item#page-contato-telefone",
      "flex-layout.row#page-contato-socialmedia"
    ],
    "props": {
      "blockClass": "page-contato-info"
    }
  },

  "rich-text#page-contato-title": {
    "props": {
      "text": "## Fale com a gente",
      "blockClass": "page-contato-title"
    }
  },

  "rich-text#page-contato-text": {
    "props": {
      "text": "Preencha o formulário e nossa equipe entrará em contato com você.",
      "blockClass": "page-contato-text"
    }
  },

  "rich-text#page-contato-text-infos": {
    "props": {
      "text": "Se preferir, entre em contato pelo telefone de segunda a sexta, das 7h às 18h.",
      "blockClass": "page-contato-text"
    }
  },

  "menu-item#page-contato-telefone": {
    "props": {
      "id": "menu-telefone-contato",
      "type": "custom",
      "iconId": null,
      "highlight": false,
      "blockClass": "page-contato-telefone",
      "itemProps": {
        "type": "internal",
        "href": "tel:+55 41 3030 3030",
        "noFollow": false,
        "tagTitle": "+55 41 3030 3030",
        "text": "+55 41 3030 3030"
      }
    }
  },

  "flex-layout.row#page-contato-socialmedia": {
    "children": [
      "image#page-contato-facebook",
      "image#page-contato-youtube",
      "image#page-contato-instagram",
      "image#page-contato-twitter"
    ],
    "props": {
      "blockClass": "page-contato-redes-sociais",
      "colSizing": "auto"
    }
  },

  "image#page-contato-facebook": {
    "props": {
      "link": {
        "url": "https://www.facebook.com/driven.cx",
        "newTab": true,
        "attributeTitle": "Facebook"
      },
      "src": "assets/page-contato-facebook.png"
    }
  },
  "image#page-contato-youtube": {
    "props": {
      "link": {
        "url": "https://www.youtube.com/channel/UC19vd1M3-rlq3Qk1OvJO0Yg",
        "newTab": true,
        "attributeTitle": "Youtube"
      },
      "src": "assets/page-contato-youtube.png"
    }
  },
  "image#page-contato-instagram": {
    "props": {
      "link": {
        "url": "https://www.instagram.com/driven.cx/",
        "newTab": true,
        "attributeTitle": "Instagram"
      },
      "src": "assets/page-contato-instagram.png"
    }
  },
  "image#page-contato-twitter": {
    "props": {
      "link": {
        "url": "https://twitter.com/drivencx",
        "newTab": true,
        "attributeTitle": "Twitter"
      },
      "src": "assets/page-contato-twitter.png"
    }
  },

  "flex-layout.col#page-contato-form": {
    "children": [
      "form"
    ],
    "props": {
      "blockClass": "page-contato-form"
    }
  },

  "form": {
    "props": {
      "entity": "FC",
      "schema": "FaleConosco",
      "blockClass":"form-contato"
    },
    "children": [
      "form-input.text#nome",
      "form-input.text#email",
      "form-input.textarea#mensagem",
      "form-submit"
    ],
    "blocks": ["form-success"]
  },

  "form-input.text#nome": {
    "props": {
      "pointer": "#/properties/nome",
      "label": "Seu nome"
    }
  },
  "form-input.text#email": {
    "props": {
      "pointer": "#/properties/email",
      "label": "E-mail"
    }
  },
  "form-input.textarea#mensagem": {
    "props": {
      "pointer": "#/properties/mensagem",
      "label": "Mensagem"
    }
  },

  "form-submit": {
    "props": {
      "label": "Enviar mensagem",
      "blockClass": "form-contato"
    }
  },

  "form-success": {
    "children": [
      "rich-text#successSubmit"
    ]
  },

  "rich-text#successSubmit": {
    "props": {
      "text": "Mensagem enviada"
    }
  }
}
