<svg width="58" height="40" viewBox="0 0 58 40" fill="none" xmlns="http://www.w3.org/2000/svg">
<rect x="0.785156" y="0.5" width="56.1429" height="39" rx="1.5" fill="white" stroke="#E5E5E5"/>
<path d="M26.578 25.2233H23.7804L25.5289 14.4777H28.3268L26.578 25.2233ZM21.4268 14.4777L18.7597 21.8686L18.4441 20.2771L18.4444 20.2777L17.503 15.4452C17.503 15.4452 17.3892 14.4777 16.1759 14.4777H11.7666L11.7148 14.6597C11.7148 14.6597 13.0632 14.9402 14.6413 15.8879L17.0718 25.2236H19.9868L24.4378 14.4777H21.4268ZM43.4317 25.2233H46.0006L43.7608 14.4774H41.5119C40.4734 14.4774 40.2205 15.2782 40.2205 15.2782L36.048 25.2233H38.9643L39.5476 23.6272H43.104L43.4317 25.2233ZM40.3533 21.4223L41.8232 17.401L42.6502 21.4223H40.3533ZM36.2667 17.0618L36.666 14.7542C36.666 14.7542 35.434 14.2857 34.1497 14.2857C32.7614 14.2857 29.4645 14.8925 29.4645 17.8431C29.4645 20.6192 33.334 20.6536 33.334 22.1118C33.334 23.57 29.8632 23.3087 28.7177 22.3892L28.3018 24.802C28.3018 24.802 29.551 25.4087 31.4596 25.4087C33.3688 25.4087 36.2489 24.4202 36.2489 21.7298C36.2489 18.9359 32.3446 18.6758 32.3446 17.4611C32.3449 16.2461 35.0695 16.4021 36.2667 17.0618Z" fill="#2566AF"/>
<path d="M18.4444 20.2775L17.503 15.4451C17.503 15.4451 17.3892 14.4776 16.1759 14.4776H11.7666L11.7148 14.6595C11.7148 14.6595 13.8341 15.0988 15.8669 16.7443C17.8106 18.3172 18.4444 20.2775 18.4444 20.2775Z" fill="#E6A540"/>
</svg>
