{
  "flex-layout.row#shelfTitle": {
    "children": [
      "rich-text#shelf-title"
    ],
    "props": {
      "blockClass": "shelf-row"
    }
  },

  "rich-text#shelf-title": {
    "props": {
      "text": "## Ofertas do dia",
      "blockClass": "shelfTitle"
    }
  },

  "flex-layout.row#shelf": {
    "children": [
      "list-context.product-list#demo1"
    ],
    "props": {
      "blockClass": "shelf-row-first"
    }
  },

  "list-context.product-list#demo1": {
    "blocks": ["product-summary.shelf"],
    "children": ["slider-layout#demo-products"],
    "props": {
      "blockClass": "shelf-list"
    }
  },

  "slider-layout#demo-products": {
    "props": {
      "itemsPerPage": {
        "desktop": 4,
        "tablet": 2,
        "phone": 2
      },
      "infinite": true,
      "fullWidth": false,
      "blockClass": "shelf",
      "showNavigationArrows": "desktopOnly"
    }
  }
}
