{
  "flex-layout.row#home-row-3": {
    "children": [
      "flex-layout.col#home-col-3.1",
      "flex-layout.col#home-col-3.2"
    ],
    "props": {
      "blockClass": "home-banner-footer-row"
    }
  },

  "flex-layout.col#home-col-3.1": {
    "children": [
      "image-list#home-3.1"
    ]
  },

  "flex-layout.col#home-col-3.2": {
    "children": [
      "image-list#home-3.2"
    ]
  },

  "image-list#home-3.1": {
    "props": {
      "images": [
        {
          "image": "assets/card-desktop-esquerda.png",
          "mobileImage": "assets/card-esquerda-mobile.png",
          "link": "/",
          "width": "100%"
        }
      ]
    }
  },

  "image-list#home-3.2": {
    "props": {
      "images": [
        {
          "image": "assets/card-desktop-direita.png",
          "mobileImage": "assets/card-direita-mobile.png",
          "link": "/",
          "width": "100%"
        }
      ]
    }
  }
}
